id;listing_id;script_code;exchange;status;status_date;created_by;created_date;last_modified_by;last_modified_date;is_deleted;operation;ctlg_srno;json_store_id;is_data_processed;ctlg_is_deleted
1;21392;capability relationships;zero administration withdrawal;Hat architectures Generic Plastic Table;2021-03-20;Auto Loan Account Auto Loan Account;2021-03-21;Sleek hacking task-force;2021-03-20;u;Home Loan Account Missouri Buckinghamshire;14155;9903;c;U
2;21947;Handmade Concrete Keyboard Cuban Peso Peso Convert;green payment envisioneer;Developer Liaison;2021-03-21;target;2021-03-21;Savings Account Auto Loan Account;2021-03-20;B;Industrial;67271;61540;B;O
3;60607;Sleek Metal Sausages sky blue;Beauty deposit deposit;Metal convergence;2021-03-21;proactive motivating;2021-03-20;back-end tan;2021-03-21;B;synthesizing;52548;15230;c;F
4;33530;functionalities mobile Gloves;Generic;HDD Shirt Pizza;2021-03-21;mint green;2021-03-20;Berkshire Chips;2021-03-21;E;Bike;28212;14093;s;p
5;28008;wireless Supervisor;Engineer;Alley;2021-03-21;Albania;2021-03-21;HDD;2021-03-21;R;Soap;52842;33710;s;I
6;49980;Practical;Personal Loan Account neural;Pants New Israeli Sheqel;2021-03-21;port bypass;2021-03-20;Kiribati National Factors;2021-03-21;I;Investor Fresh Shirt;74480;48217;T;C
7;94492;Home Loan Account Fantastic Wooden Mouse;primary;radical benchmark Intelligent;2021-03-21;matrix blue Euro;2021-03-20;recontextualize SAS Games;2021-03-20;o;Congo;10419;31581;K;h
8;95015;Savings Account whiteboard Streamlined;Senior calculating;payment;2021-03-21;upward-trending;2021-03-20;sensor full-range ivory;2021-03-20;O;Executive;37416;73972;m;i
9;33787;Bacon;Taiwan Home Loan Account;Books Romania;2021-03-21;backing up deposit Automotive;2021-03-21;matrix encoding;2021-03-21;M;Unbranded red;78264;7902;F;H
10;24932;Drive Investment Account;magenta;Expressway Horizontal Dynamic;2021-03-21;Cotton Cambridgeshire;2021-03-21;West Virginia Unbranded Division;2021-03-21;T;e-services niches Fantastic Cotton Chips;50104;39475;P;C
