{
  "name": "CompanyRequest",
  "fields": [
    {
      "fieldName": "companyName",
      "fieldType": "String",
      "fieldValidateRules": [
        "maxlength"
      ],
      "fieldValidateRulesMaxlength": "200"
    },
    {
      "fieldName": "companyTypeId",
      "fieldType": "Integer"
    },
    {
      "fieldName": "sectorId",
      "fieldType": "Integer"
    },
    {
      "fieldName": "industryId",
      "fieldType": "Integer"
    },
    {
      "fieldName": "businessAreaId",
      "fieldType": "Integer"
    },
    {
      "fieldName": "clientGroupName",
      "fieldType": "String",
      "fieldValidateRules": [
        "maxlength"
      ],
      "fieldValidateRulesMaxlength": "50"
    },
    {
      "fieldName": "remarks",
      "fieldType": "String",
      "fieldValidateRules": [
        "maxlength"
      ],
      "fieldValidateRulesMaxlength": "100"
    },
    {
      "fieldName": "recordId",
      "fieldType": "String",
      "fieldValidateRules": [
        "required",
        "maxlength"
      ],
      "fieldValidateRulesMaxlength": "50"
    },
    {
      "fieldName": "companyCode",
      "fieldType": "String",
      "fieldValidateRules": [
        "maxlength"
      ],
      "fieldValidateRulesMaxlength": "10"
    },
    {
      "fieldName": "status",
      "fieldType": "String",
      "fieldValidateRules": [
        "maxlength"
      ],
      "fieldValidateRulesMaxlength": "50"
    },
    {
      "fieldName": "reason",
      "fieldType": "String",
      "fieldValidateRules": [
        "maxlength"
      ],
      "fieldValidateRulesMaxlength": "50"
    },
    {
      "fieldName": "isDeleted",
      "fieldType": "String",
      "fieldValidateRules": [
        "maxlength"
      ],
      "fieldValidateRulesMaxlength": "1"
    },
    {
      "fieldName": "billingType",
      "fieldType": "String",
      "fieldValidateRules": [
        "maxlength"
      ],
      "fieldValidateRulesMaxlength": "50"
    },
    {
      "fieldName": "displayCompanyName",
      "fieldType": "String",
      "fieldValidateRules": [
        "maxlength"
      ],
      "fieldValidateRulesMaxlength": "200"
    },
    {
      "fieldName": "requestedBy",
      "fieldType": "String",
      "fieldValidateRules": [
        "maxlength"
      ],
      "fieldValidateRulesMaxlength": "20"
    },
    {
      "fieldName": "approvedBy",
      "fieldType": "String",
      "fieldValidateRules": [
        "maxlength"
      ],
      "fieldValidateRulesMaxlength": "20"
    },
    {
      "fieldName": "createdDate",
      "fieldType": "Instant"
    },
    {
      "fieldName": "createdBy",
      "fieldType": "String",
      "fieldValidateRules": [
        "maxlength"
      ],
      "fieldValidateRulesMaxlength": "50"
    },
    {
      "fieldName": "lastModifiedDate",
      "fieldType": "Instant"
    },
    {
      "fieldName": "requestedDate",
      "fieldType": "Instant"
    },
    {
      "fieldName": "approvedDate",
      "fieldType": "Instant"
    },
    {
      "fieldName": "lastModifiedBy",
      "fieldType": "String",
      "fieldValidateRules": [
        "maxlength"
      ],
      "fieldValidateRulesMaxlength": "100"
    },
    {
      "fieldName": "originalFilename",
      "fieldType": "String",
      "fieldValidateRules": [
        "maxlength"
      ],
      "fieldValidateRulesMaxlength": "50"
    },
    {
      "fieldName": "displayFilename",
      "fieldType": "String",
      "fieldValidateRules": [
        "maxlength"
      ],
      "fieldValidateRulesMaxlength": "500"
    }
  ],
  "relationships": [
    {
      "relationshipType": "one-to-many",
      "otherEntityName": "companyAddressMaster",
      "otherEntityRelationshipName": "record",
      "relationshipName": "companyAddressMaster"
    },
    {
      "relationshipType": "one-to-many",
      "otherEntityName": "companyTanPanRocDtls",
      "otherEntityRelationshipName": "record",
      "relationshipName": "companyTanPanRocDtls"
    }
  ],
  "changelogDate": "20210321145625",
  "entityTableName": "company_request",
  "dto": "no",
  "pagination": "pagination",
  "service": "serviceClass",
  "jpaMetamodelFiltering": true,
  "fluentMethods": true,
  "readOnly": false,
  "embedded": false,
  "clientRootFolder": "OneSource",
  "applications": "*",
  "microserviceName": "OneSource"
}
