{
  "name": "CompanySectorMaster",
  "fields": [
    {
      "fieldName": "sectorId",
      "fieldType": "Integer",
      "fieldValidateRules": [
        "required"
      ]
    },
    {
      "fieldName": "sectorName",
      "fieldType": "String",
      "fieldValidateRules": [
        "maxlength"
      ],
      "fieldValidateRulesMaxlength": "25"
    },
    {
      "fieldName": "isDeleted",
      "fieldType": "String",
      "fieldValidateRules": [
        "maxlength"
      ],
      "fieldValidateRulesMaxlength": "1"
    },
    {
      "fieldName": "lastModifiedDate",
      "fieldType": "LocalDate"
    },
    {
      "fieldName": "lastModifiedBy",
      "fieldType": "String",
      "fieldValidateRules": [
        "maxlength"
      ],
      "fieldValidateRulesMaxlength": "100"
    },
    {
      "fieldName": "createdBy",
      "fieldType": "String",
      "fieldValidateRules": [
        "maxlength"
      ],
      "fieldValidateRulesMaxlength": "100"
    },
    {
      "fieldName": "createdDate",
      "fieldType": "LocalDate"
    },
    {
      "fieldName": "operation",
      "fieldType": "String",
      "fieldValidateRules": [
        "maxlength"
      ],
      "fieldValidateRulesMaxlength": "50"
    }
  ],
  "relationships": [
    {
      "relationshipType": "one-to-many",
      "otherEntityName": "onesourceCompanyMaster",
      "otherEntityRelationshipName": "sectorId",
      "relationshipName": "onesourceCompanyMaster"
    }
  ],
  "changelogDate": "20210321145725",
  "javadoc": "Company_Master_Table",
  "entityTableName": "company_sector_master",
  "dto": "no",
  "pagination": "pagination",
  "service": "serviceClass",
  "jpaMetamodelFiltering": true,
  "fluentMethods": true,
  "readOnly": false,
  "embedded": false,
  "clientRootFolder": "OneSource",
  "applications": "*",
  "microserviceName": "OneSource"
}
