{
  "name": "CompanyTypeMaster",
  "fields": [
    {
      "fieldName": "companyTypeId",
      "fieldType": "Integer",
      "fieldValidateRules": [
        "required"
      ]
    },
    {
      "fieldName": "companyType",
      "fieldType": "String",
      "fieldValidateRules": [
        "required",
        "maxlength"
      ],
      "fieldValidateRulesMaxlength": "50"
    },
    {
      "fieldName": "isDeleted",
      "fieldType": "String",
      "fieldValidateRules": [
        "maxlength"
      ],
      "fieldValidateRulesMaxlength": "1"
    },
    {
      "fieldName": "lastModifiedDate",
      "fieldType": "Instant"
    },
    {
      "fieldName": "createdDate",
      "fieldType": "Instant"
    },
    {
      "fieldName": "createdBy",
      "fieldType": "String",
      "fieldValidateRules": [
        "maxlength"
      ],
      "fieldValidateRulesMaxlength": "100"
    },
    {
      "fieldName": "lastModifiedBy",
      "fieldType": "String",
      "fieldValidateRules": [
        "maxlength"
      ],
      "fieldValidateRulesMaxlength": "100"
    }
  ],
  "relationships": [
    {
      "relationshipType": "one-to-many",
      "otherEntityName": "onesourceCompanyMaster",
      "otherEntityRelationshipName": "companyTypeId",
      "relationshipName": "onesourceCompanyMaster"
    }
  ],
  "changelogDate": "20210321150025",
  "entityTableName": "company_type_master",
  "dto": "no",
  "pagination": "pagination",
  "service": "serviceClass",
  "jpaMetamodelFiltering": true,
  "fluentMethods": true,
  "readOnly": false,
  "embedded": false,
  "clientRootFolder": "OneSource",
  "applications": "*",
  "microserviceName": "OneSource"
}
